SCCPproviderAssignment_ID,GSMRoSiSCCProvider_ID,GSMRoSiMNO_ID
26,97,268
27,8,477
28,8,270
29,8,184
30,8,194
31,8,333
32,8,182
33,8,371
34,8,62
35,8,523
36,8,432
37,8,493
38,8,274
39,8,95
40,8,83
41,8,261
42,8,343
43,8,351
44,8,473
45,8,547
46,8,641
47,8,576
48,8,265
49,8,273
50,8,203
51,8,434
52,8,279
53,8,269
54,8,462
55,5,110
56,5,51
57,5,139
58,5,81
59,5,92
60,5,210
61,5,25
62,5,639
63,5,242
64,5,492
65,5,301
66,47,254
67,47,400
68,47,230
69,47,395
70,21,324
71,21,429
72,21,468
73,58,122
74,60,406
75,59,402
76,61,331
77,42,151
78,42,96
79,42,104
80,42,119
81,42,391
82,42,526
83,42,511
84,42,74
85,42,26
86,42,505
87,42,178
88,8,180
89,8,418
90,8,103
91,17,103
92,8,458
93,64,458
94,8,460
95,64,460
96,42,422
97,6,422
98,42,527
99,43,527
100,42,479
101,8,479
102,62,480
103,8,480
104,6,480
105,63,309
106,5,309
107,8,288
108,17,288
109,8,658
110,17,658
111,35,463
112,35,652
113,35,365
114,17,338
115,17,17
116,17,295
117,17,69
118,17,357
119,17,22
120,17,50
121,17,75
122,17,76
123,17,484
124,17,98
125,17,79
126,17,660
127,17,175
128,17,496
129,17,340
130,17,352
131,17,459
132,17,78
133,17,500
134,17,233
135,17,55
136,17,662
137,17,448
138,17,4
139,17,71
140,17,239
141,17,441
142,17,506
143,17,516
144,17,176
145,17,449
146,17,461
147,8,461
148,64,461
149,17,456
150,17,21
151,17,255
152,40,235
153,40,245
154,40,424
155,40,454
156,40,237
157,40,533
158,40,131
159,40,348
160,40,188
161,40,514
162,36,514
163,155,602
164,155,603
165,155,604
166,155,605
167,155,606
168,155,607
169,155,608
170,155,609
171,155,610
172,155,611
173,155,612
174,155,613
175,155,614
176,155,3
177,1,379
178,1,407
179,1,507
180,3,507
181,25,280
184,19,112
185,3,99
186,18,381
187,18,216
188,24,503
189,24,519
190,24,275
191,24,314
192,24,445
193,24,647
194,24,190
195,53,142
196,8,142
197,53,146
198,53,138
199,53,28
200,53,426
201,53,91
202,53,54
203,53,591
204,53,321
205,53,228
206,53,638
207,53,640
208,3,638
209,53,330
210,53,290
211,53,427
212,53,150
213,53,252
214,53,262
215,53,444
216,53,193
217,53,224
218,5,642
219,5,198
220,5,546
221,5,97
222,5,12
223,5,169
224,5,170
225,5,536
226,5,651
227,5,258
228,5,126
229,5,271
230,5,346
231,5,42
232,5,648
233,5,490
234,5,257
235,5,149
236,5,152
237,5,153
238,5,302
239,5,415
240,5,303
241,5,116
242,5,212
243,5,646
244,5,59
245,5,260
246,5,316
247,5,225
248,5,420
249,5,312
250,5,264
251,5,486
252,5,307
253,5,231
254,5,259
255,5,347
256,5,315
257,5,538
258,5,311
259,6,525
260,6,583
261,6,451
262,6,286
263,6,362
264,6,569
265,6,622
266,6,502
267,6,624
268,6,283
269,6,23
270,6,625
271,6,627
272,6,37
273,6,35
274,6,628
275,6,284
276,6,570
277,6,530
278,6,102
279,6,629
280,6,43
281,6,120
282,6,643
283,6,630
284,6,47
285,6,584
286,6,85
287,6,631
288,6,48
289,6,344
290,6,77
291,6,636
292,6,585
293,6,202
294,6,159
295,6,632
296,6,661
297,6,571
298,6,582
299,6,118
300,6,586
301,6,33
302,6,386
303,6,158
304,6,285
305,6,572
306,6,633
307,6,573
308,6,634
309,6,574
310,6,635
311,6,383
312,6,581
314,6,206
315,6,575
317,6,292
318,6,20
319,6,49
320,6,517
321,36,517
322,6,650
323,36,650
324,6,626
325,6,425
326,6,404
327,6,226
328,6,654
329,6,37
330,36,214
331,36,52
332,36,109
333,36,70
334,40,655
335,36,592
336,36,387
337,36,649
338,36,67
339,36,100
340,6,114
341,6,510
342,36,510
343,34,57
344,34,58
345,34,56
346,34,323
347,11,542
348,11,305
349,11,317
350,11,345
351,11,370
352,11,397
353,11,410
354,11,433
355,11,450
356,11,455
357,11,481
358,11,44
359,11,46
360,11,155
361,32,341
362,20,129
363,20,539
364,20,130
365,20,24
366,20,535
367,20,222
368,20,173
369,20,594
370,20,485
371,20,540
372,20,61
373,20,128
374,20,339
375,20,367
376,20,266
377,41,529
378,41,522
379,26,101
380,30,326
381,30,353
382,30,160
383,30,213
384,30,354
385,3,361
386,15,368
387,15,209
388,2,579
389,55,417
390,56,105
391,46,148
392,52,495
393,52,377
394,51,111
395,12,595
396,12,200
397,5,18
398,6,587
399,24,240
400,3,211
401,8,60
402,4,40
403,4,223
404,4,278
405,4,436
406,4,196
407,4,483
408,4,19
409,4,465
410,4,408
411,4,568
412,4,521
413,4,476
415,4,2
416,65,440
417,4,162
418,4,179
419,4,437
420,4,363
421,4,250
422,8,250
423,66,513
424,57,84
425,6,673
426,22,356
427,22,134
428,3,27
429,3,412
430,3,489
431,3,411
432,3,413
433,54,509
435,31,136
437,72,45
438,54,221
440,70,166
442,78,256
443,79,191
444,77,329
445,75,537
446,67,396
447,,88
448,80,88
449,81,657
450,73,342
451,17,23
452,20,117
453,5,390
454,,310
455,82,310
456,6,676
457,40,679
460,30,471
461,8,680
462,24,683
463,84,13
464,,16
465,85,16
466,6,53
467,86,38
468,86,39
469,10,36
470,53,63
472,89,65
473,53,65
474,5,65
475,8,65
476,90,63
477,,451
478,16,66
479,36,86
480,91,87
481,,87
482,93,87
483,45,82
484,94,89
485,95,389
486,95,208
487,95,566
488,95,563
489,95,553
490,95,557
491,96,439
492,17,439
493,17,452
494,98,466
495,6,466
496,99,90
497,101,243
498,17,243
499,100,243
500,105,414
501,106,332
502,8,332
503,107,177
504,27,253
505,55,460
506,27,464
507,55,464
508,8,464
509,55,467
510,27,467
511,17,467
513,2,467
514,109,442
515,6,442
516,110,93
517,111,201
518,26,133
519,26,183
520,5,372
521,91,219
522,91,488
523,5,488
524,42,488
525,91,227
526,16,248
527,113,453
528,112,453
529,114,220
530,6,487
531,115,318
532,116,335
533,115,327
534,115,534
535,32,678
536,117,541
537,118,249
538,119,405
539,120,336
540,95,565
541,95,551
542,95,550
543,95,552
544,95,561
546,95,564
547,95,560
548,95,589
549,95,554
550,95,555
551,95,558
552,95,559
553,95,616
554,95,556
555,95,562
556,95,360
557,95,359
558,95,167
559,95,168
560,95,171
562,95,494
564,95,172
565,95,174
566,95,590
567,95,620
568,95,619
569,95,615
570,95,617
571,95,601
572,95,299
573,95,124
574,95,457
575,95,366
576,95,435
577,95,125
578,95,438
579,95,369
580,95,475
581,95,161
582,42,376
583,121,431
584,122,334
585,8,334
586,5,334
587,36,334
588,6,334
591,106,163
592,8,163
593,6,163
594,6,623
596,36,394
597,,297
598,124,297
599,126,401
600,127,482
601,23,430
602,9,241
603,9,135
604,36,135
605,77,272
606,5,272
607,42,319
608,6,319
609,42,384
610,6,384
611,42,385
612,6,385
613,6,376
614,5,308
615,44,236
616,8,416
617,129,246
618,36,246
619,130,145
620,130,154
621,33,294
623,33,349
624,33,518
625,131,469
626,131,291
627,131,156
628,28,320
629,132,472
630,8,472
631,49,308
632,49,298
633,5,298
634,133,141
635,24,671
636,24,664
637,91,452
639,6,452
640,134,251
641,101,350
642,15,189
643,130,147
644,130,157
645,135,332
646,136,132
647,8,132
648,6,132
649,106,238
650,137,593
651,17,593
652,20,593
653,20,541
654,95,300
655,3,659
656,38,382
657,5,482
658,138,501
659,29,472
660,29,532
661,29,423
662,139,232
663,140,388
666,5,670
667,50,668
668,52,599
669,17,197
670,130,567
671,36,644
672,95,621
673,5,684
674,141,165
675,,144
677,142,144
678,143,531
679,144,234
680,145,296
681,146,127
682,147,244
683,148,322
684,149,94
685,150,380
686,152,508
687,153,416
688,154,304
689,17,685
690,8,478
691,5,686
692,17,687
693,6,688
694,5,690
695,155,1
696,155,6
697,156,204
698,5,163
699,17,693
